{
	
	"id": "userEnrolment1",
	"userId": "userId1",
	"courseId": "courseID1",
	"isPaid": true,
	"dateTimeEnrolled": "2022-09-22"


}

{
	
	"id": "userEnrolment2",
	"userId": "userId2",
	"courseId": "courseId2",
	"isPaid": true,
	"dateTimeEnrolled": "2022-09-22"

}